ignored line
ignored line
ignored line
ignored line
ignored line
ignored line
ignored line
1 1
0 0 0
1 2
1 1 0
1 3
1 0 1
1 4
0 1 1
1 5
0.5 0.5 0.0
1 6
1.0 0.5 0.5
1 7
0.5 0.0 0.5
1 8
0.0 0.5 0.5
1 9
0.5 1.0 0.5
1 10
0.5 0.5 1.0
1 11
0.25 0.25 0.25
1 12
0.75 0.75 0.25
1 13
0.25 0.75 0.75
1 14
0.75 0.25 0.75
1 15
1.1 0.9 1.1
1 16
0.9 1.1 0.9
1 17
0.9 1.1 1.1
1 18
1.1 0.9 0.9
1 19
1.1 1.1 0.9
1 20
0.9 0.9 1.1
1 21
0.9 0.1 -0.1
1 22
1.1 -0.1 0.1
1 23
1.1 0.1 0.1
1 24
0.9 -0.1 -0.1
1 25
1.1 0.1 -0.1
1 26
0.9 -0.1 0.1
1 27
0.1 1.1 0.1
1 28
-0.1 0.9 -0.1
1 29
-0.1 1.1 0.1
1 30
0.1 0.9 -0.1
1 31
0.1 1.1 -0.1
1 32
-0.1 0.9 0.1
1 33
-0.1 0.1 1.1
1 34
0.1 -0.1 0.9
1 35
0.1 -0.1 1.1
1 36
-0.1 0.1 0.9
1 37
0.1 0.1 1.1
1 38
-0.1 -0.1 0.9
1 39
0.6 -0.1 0.4
1 40
0.4 -0.1 0.6
1 41
0.4 1.1 0.4
1 42
0.6 1.1 0.6
1 43
0.4 0.6 -0.1
1 44
0.6 0.4 -0.1
1 45
0.4 0.4 1.1
1 46
0.6 0.6 1.1
1 47
1.1 0.4 0.4
1 48
1.1 0.6 0.6
1 49
-0.1 0.4 0.6
1 50
-0.1 0.6 0.4
2 1
1 11
2 2
5 11
2 3
5 12
2 4
2 12
2 5
8 11
2 6
7 11
2 7
9 12
2 8
6 12
2 9
8 13
2 10
9 13
2 11
7 14
2 12
6 14
2 13
4 13
2 14
10 13
2 15
10 14
2 16
3 14
2 17
15 16
2 18
17 18
2 19
19 20
2 20
21 22
2 21
23 24
2 22
25 26
2 23
27 28
2 24
29 30
2 25
31 32
2 26
33 34
2 27
35 36
2 28
37 38
2 29
7 39
2 30
7 40
2 31
9 41
2 32
9 42
2 33
5 43
2 34
5 44
2 35
10 45
2 36
10 46
2 37
6 47
2 38
6 48
2 39
8 49
2 40
8 50
ignored line
ignored line
ignored line
ignored line
ignored line
ignored line
ignored line
